{
  "name": "prompt-password-tests",
  "reason": {
    "react-jsx": 3
  },
  "sources": {
    "dir" : "src",
    "subdirs" : true
  },
  "bsc-flags": ["-bs-super-errors", "-bs-no-version-header"],
  "package-specs": [{
    "module": "commonjs",
    "in-source": true
  }],
  "suffix": ".bs.js",
  "namespace": true,
  "bs-dependencies": [
    "reason-react"
  ],
  "refmt": 3
}
